Week 1 - Homework
…
Exercise 1 (Subsetting and Statistics)

For this exercise, we will use the msleep dataset from the ggplot2 package.

(a) Install and load the ggplot2 package. Do not include the installation command in your .Rmd file. (If you do it will install the package every time you knit your file.) Do include the command to load the package into your environment.

library('ggplot2')

(b) Note that this dataset is technically a tibble, not a data frame. How many observations are in this dataset? How many variables? What are the observations in this dataset? Number of Observations: 83 Number of Variables: 11 Observations:

msl <- ggplot2::msleep
msl

## # A tibble: 83 x 11
##    name   genus vore  order conservation sleep_total sleep_rem sleep_cycle awake
##    <chr>  <chr> <chr> <chr> <chr>              <dbl>     <dbl>       <dbl> <dbl>
##  1 Cheet~ Acin~ carni Carn~ lc                  12.1      NA        NA      11.9
##  2 Owl m~ Aotus omni  Prim~ <NA>                17         1.8      NA       7  
##  3 Mount~ Aplo~ herbi Rode~ nt                  14.4       2.4      NA       9.6
##  4 Great~ Blar~ omni  Sori~ lc                  14.9       2.3       0.133   9.1
##  5 Cow    Bos   herbi Arti~ domesticated         4         0.7       0.667  20  
##  6 Three~ Brad~ herbi Pilo~ <NA>                14.4       2.2       0.767   9.6
##  7 North~ Call~ carni Carn~ vu                   8.7       1.4       0.383  15.3
##  8 Vespe~ Calo~ <NA>  Rode~ <NA>                 7        NA        NA      17  
##  9 Dog    Canis carni Carn~ domesticated        10.1       2.9       0.333  13.9
## 10 Roe d~ Capr~ herbi Arti~ lc                   3        NA        NA      21  
## # ... with 73 more rows, and 2 more variables: brainwt <dbl>, bodywt <dbl>
…
